…
#grid approximation for Riccardo
(
  Ric_tib <-
    tibble(p_grid     = seq(from = 0, to = 1, length.out = n), #setting p_grid
           # note we're using a flat uniform prior
           prior      = 1) %>%  #setting prior
    mutate(likelihood = dbinom(n_success, size = n_trials, prob = p_grid)) %>% #computing likelihood              using dbinom
    mutate(posterior  = (likelihood * prior) / sum(likelihood * prior)) #computing posterior using                Bayes
)
```

    ## # A tibble: 101 x 4
    ##    p_grid prior likelihood  posterior
    ##     <dbl> <dbl>      <dbl>      <dbl>
    ##  1   0        1  0         0         
    ##  2   0.01     1  0.0000194 0.00000136
    ##  3   0.02     1  0.000151  0.0000105 
    ##  4   0.03     1  0.000493  0.0000345 
    ##  5   0.04     1  0.00113   0.0000793 
    ##  6   0.05     1  0.00214   0.000150  
    ##  7   0.06     1  0.00359   0.000251  
    ##  8   0.07     1  0.00552   0.000386  
    ##  9   0.08     1  0.00797   0.000558  
    ## 10   0.09     1  0.0110    0.000769  
    ## # ... with 91 more rows
…
